[
	{"name":"meta_case_name","value":"","type":"text","hint":"case name","inResults":true},
	{"name":"meta_case_number","value":"","type":"text","hint":"case number","inResults":true},
	{"name":"meta_date","value":"","type":"text","hint":"date","inResults":true},
	{"name":"meta_doc_cellar","value":"","type":"text","hint":"doc cellar","inResults":true}
]